Exercícios em Sala de Aula/PO_Subtrator/simulation/qsim/Sub.msim.vcd
$comment
	File created using the following command:
		vcd file Sub.msim.vcd -direction
$end
$date
	Tue Sep 12 16:20:12 2017
$end
$version
	ModelSim Version 10.1d
$end
$timescale
	1ps
$end
$scope module PO_Sub_vlg_vec_tst $end
$var reg 16 ! a_PO [15:0] $end
$var reg 16 " b_PO [15:0] $end
$var reg 1 # clk $end
$var reg 1 $ Ctrl_mux1 $end
$var reg 1 % Ctrl_mux2 $end
$var reg 1 & En_inputs $end
$var reg 1 ' En_regAdder $end
$var wire 1 ( c_PO [15] $end
$var wire 1 ) c_PO [14] $end
$var wire 1 * c_PO [13] $end
$var wire 1 + c_PO [12] $end
$var wire 1 , c_PO [11] $end
$var wire 1 - c_PO [10] $end
$var wire 1 . c_PO [9] $end
$var wire 1 / c_PO [8] $end
$var wire 1 0 c_PO [7] $end
$var wire 1 1 c_PO [6] $end
$var wire 1 2 c_PO [5] $end
$var wire 1 3 c_PO [4] $end
$var wire 1 4 c_PO [3] $end
$var wire 1 5 c_PO [2] $end
$var wire 1 6 c_PO [1] $end
$var wire 1 7 c_PO [0] $end
$var wire 1 8 outAdder_view [15] $end
$var wire 1 9 outAdder_view [14] $end
$var wire 1 : outAdder_view [13] $end
$var wire 1 ; outAdder_view [12] $end
$var wire 1 < outAdder_view [11] $end
$var wire 1 = outAdder_view [10] $end
$var wire 1 > outAdder_view [9] $end
$var wire 1 ? outAdder_view [8] $end
$var wire 1 @ outAdder_view [7] $end
$var wire 1 A outAdder_view [6] $end
$var wire 1 B outAdder_view [5] $end
$var wire 1 C outAdder_view [4] $end
$var wire 1 D outAdder_view [3] $end
$var wire 1 E outAdder_view [2] $end
$var wire 1 F outAdder_view [1] $end
$var wire 1 G outAdder_view [0] $end
$var wire 1 H outInv_view [15] $end
$var wire 1 I outInv_view [14] $end
$var wire 1 J outInv_view [13] $end
$var wire 1 K outInv_view [12] $end
$var wire 1 L outInv_view [11] $end
$var wire 1 M outInv_view [10] $end
$var wire 1 N outInv_view [9] $end
$var wire 1 O outInv_view [8] $end
$var wire 1 P outInv_view [7] $end
$var wire 1 Q outInv_view [6] $end
$var wire 1 R outInv_view [5] $end
$var wire 1 S outInv_view [4] $end
$var wire 1 T outInv_view [3] $end
$var wire 1 U outInv_view [2] $end
$var wire 1 V outInv_view [1] $end
$var wire 1 W outInv_view [0] $end
$var wire 1 X outMux1_view [15] $end
$var wire 1 Y outMux1_view [14] $end
$var wire 1 Z outMux1_view [13] $end
$var wire 1 [ outMux1_view [12] $end
$var wire 1 \ outMux1_view [11] $end
$var wire 1 ] outMux1_view [10] $end
$var wire 1 ^ outMux1_view [9] $end
$var wire 1 _ outMux1_view [8] $end
$var wire 1 ` outMux1_view [7] $end
$var wire 1 a outMux1_view [6] $end
$var wire 1 b outMux1_view [5] $end
$var wire 1 c outMux1_view [4] $end
$var wire 1 d outMux1_view [3] $end
$var wire 1 e outMux1_view [2] $end
$var wire 1 f outMux1_view [1] $end
$var wire 1 g outMux1_view [0] $end
$var wire 1 h outMux2_view [15] $end
$var wire 1 i outMux2_view [14] $end
$var wire 1 j outMux2_view [13] $end
$var wire 1 k outMux2_view [12] $end
$var wire 1 l outMux2_view [11] $end
$var wire 1 m outMux2_view [10] $end
$var wire 1 n outMux2_view [9] $end
$var wire 1 o outMux2_view [8] $end
$var wire 1 p outMux2_view [7] $end
$var wire 1 q outMux2_view [6] $end
$var wire 1 r outMux2_view [5] $end
$var wire 1 s outMux2_view [4] $end
$var wire 1 t outMux2_view [3] $end
$var wire 1 u outMux2_view [2] $end
$var wire 1 v outMux2_view [1] $end
$var wire 1 w outMux2_view [0] $end
$var wire 1 x outRegA_view [15] $end
$var wire 1 y outRegA_view [14] $end
$var wire 1 z outRegA_view [13] $end
$var wire 1 { outRegA_view [12] $end
$var wire 1 | outRegA_view [11] $end
$var wire 1 } outRegA_view [10] $end
$var wire 1 ~ outRegA_view [9] $end
$var wire 1 !! outRegA_view [8] $end
$var wire 1 "! outRegA_view [7] $end
$var wire 1 #! outRegA_view [6] $end
$var wire 1 $! outRegA_view [5] $end
$var wire 1 %! outRegA_view [4] $end
$var wire 1 &! outRegA_view [3] $end
$var wire 1 '! outRegA_view [2] $end
$var wire 1 (! outRegA_view [1] $end
$var wire 1 )! outRegA_view [0] $end
$var wire 1 *! outRegAdder_view [15] $end
$var wire 1 +! outRegAdder_view [14] $end
$var wire 1 ,! outRegAdder_view [13] $end
$var wire 1 -! outRegAdder_view [12] $end
$var wire 1 .! outRegAdder_view [11] $end
$var wire 1 /! outRegAdder_view [10] $end
$var wire 1 0! outRegAdder_view [9] $end
$var wire 1 1! outRegAdder_view [8] $end
$var wire 1 2! outRegAdder_view [7] $end
$var wire 1 3! outRegAdder_view [6] $end
$var wire 1 4! outRegAdder_view [5] $end
$var wire 1 5! outRegAdder_view [4] $end
$var wire 1 6! outRegAdder_view [3] $end
$var wire 1 7! outRegAdder_view [2] $end
$var wire 1 8! outRegAdder_view [1] $end
$var wire 1 9! outRegAdder_view [0] $end
$var wire 1 :! outRegB_view [15] $end
$var wire 1 ;! outRegB_view [14] $end
$var wire 1 <! outRegB_view [13] $end
$var wire 1 =! outRegB_view [12] $end
$var wire 1 >! outRegB_view [11] $end
$var wire 1 ?! outRegB_view [10] $end
$var wire 1 @! outRegB_view [9] $end
$var wire 1 A! outRegB_view [8] $end
$var wire 1 B! outRegB_view [7] $end
$var wire 1 C! outRegB_view [6] $end
$var wire 1 D! outRegB_view [5] $end
$var wire 1 E! outRegB_view [4] $end
$var wire 1 F! outRegB_view [3] $end
$var wire 1 G! outRegB_view [2] $end
$var wire 1 H! outRegB_view [1] $end
$var wire 1 I! outRegB_view [0] $end
$var wire 1 J! sampler $end
$scope module i1 $end
$var wire 1 K! gnd $end
$var wire 1 L! vcc $end
$var wire 1 M! unknown $end
$var tri1 1 N! devclrn $end
$var tri1 1 O! devpor $end
$var tri1 1 P! devoe $end
$var wire 1 Q! c_PO[0]~output_o $end
$var wire 1 R! c_PO[1]~output_o $end
$var wire 1 S! c_PO[2]~output_o $end
$var wire 1 T! c_PO[3]~output_o $end
$var wire 1 U! c_PO[4]~output_o $end
$var wire 1 V! c_PO[5]~output_o $end
$var wire 1 W! c_PO[6]~output_o $end
$var wire 1 X! c_PO[7]~output_o $end
$var wire 1 Y! c_PO[8]~output_o $end
$var wire 1 Z! c_PO[9]~output_o $end
$var wire 1 [! c_PO[10]~output_o $end
$var wire 1 \! c_PO[11]~output_o $end
$var wire 1 ]! c_PO[12]~output_o $end
$var wire 1 ^! c_PO[13]~output_o $end
$var wire 1 _! c_PO[14]~output_o $end
$var wire 1 `! c_PO[15]~output_o $end
$var wire 1 a! outMux1_view[0]~output_o $end
$var wire 1 b! outMux1_view[1]~output_o $end
$var wire 1 c! outMux1_view[2]~output_o $end
$var wire 1 d! outMux1_view[3]~output_o $end
$var wire 1 e! outMux1_view[4]~output_o $end
$var wire 1 f! outMux1_view[5]~output_o $end
$var wire 1 g! outMux1_view[6]~output_o $end
$var wire 1 h! outMux1_view[7]~output_o $end
$var wire 1 i! outMux1_view[8]~output_o $end
$var wire 1 j! outMux1_view[9]~output_o $end
$var wire 1 k! outMux1_view[10]~output_o $end
$var wire 1 l! outMux1_view[11]~output_o $end
$var wire 1 m! outMux1_view[12]~output_o $end
$var wire 1 n! outMux1_view[13]~output_o $end
$var wire 1 o! outMux1_view[14]~output_o $end
$var wire 1 p! outMux1_view[15]~output_o $end
$var wire 1 q! outMux2_view[0]~output_o $end
$var wire 1 r! outMux2_view[1]~output_o $end
$var wire 1 s! outMux2_view[2]~output_o $end
$var wire 1 t! outMux2_view[3]~output_o $end
$var wire 1 u! outMux2_view[4]~output_o $end
$var wire 1 v! outMux2_view[5]~output_o $end
$var wire 1 w! outMux2_view[6]~output_o $end
$var wire 1 x! outMux2_view[7]~output_o $end
$var wire 1 y! outMux2_view[8]~output_o $end
$var wire 1 z! outMux2_view[9]~output_o $end
$var wire 1 {! outMux2_view[10]~output_o $end
$var wire 1 |! outMux2_view[11]~output_o $end
$var wire 1 }! outMux2_view[12]~output_o $end
$var wire 1 ~! outMux2_view[13]~output_o $end
$var wire 1 !" outMux2_view[14]~output_o $end
$var wire 1 "" outMux2_view[15]~output_o $end
$var wire 1 #" outAdder_view[0]~output_o $end
$var wire 1 $" outAdder_view[1]~output_o $end
$var wire 1 %" outAdder_view[2]~output_o $end
$var wire 1 &" outAdder_view[3]~output_o $end
$var wire 1 '" outAdder_view[4]~output_o $end
$var wire 1 (" outAdder_view[5]~output_o $end
$var wire 1 )" outAdder_view[6]~output_o $end
$var wire 1 *" outAdder_view[7]~output_o $end
$var wire 1 +" outAdder_view[8]~output_o $end
$var wire 1 ," outAdder_view[9]~output_o $end
$var wire 1 -" outAdder_view[10]~output_o $end
$var wire 1 ." outAdder_view[11]~output_o $end
$var wire 1 /" outAdder_view[12]~output_o $end
$var wire 1 0" outAdder_view[13]~output_o $end
$var wire 1 1" outAdder_view[14]~output_o $end
$var wire 1 2" outAdder_view[15]~output_o $end
$var wire 1 3" outRegAdder_view[0]~output_o $end
$var wire 1 4" outRegAdder_view[1]~output_o $end
$var wire 1 5" outRegAdder_view[2]~output_o $end
$var wire 1 6" outRegAdder_view[3]~output_o $end
$var wire 1 7" outRegAdder_view[4]~output_o $end
$var wire 1 8" outRegAdder_view[5]~output_o $end
$var wire 1 9" outRegAdder_view[6]~output_o $end
$var wire 1 :" outRegAdder_view[7]~output_o $end
$var wire 1 ;" outRegAdder_view[8]~output_o $end
$var wire 1 <" outRegAdder_view[9]~output_o $end
$var wire 1 =" outRegAdder_view[10]~output_o $end
$var wire 1 >" outRegAdder_view[11]~output_o $end
$var wire 1 ?" outRegAdder_view[12]~output_o $end
$var wire 1 @" outRegAdder_view[13]~output_o $end
$var wire 1 A" outRegAdder_view[14]~output_o $end
$var wire 1 B" outRegAdder_view[15]~output_o $end
$var wire 1 C" outRegA_view[0]~output_o $end
$var wire 1 D" outRegA_view[1]~output_o $end
$var wire 1 E" outRegA_view[2]~output_o $end
$var wire 1 F" outRegA_view[3]~output_o $end
$var wire 1 G" outRegA_view[4]~output_o $end
$var wire 1 H" outRegA_view[5]~output_o $end
$var wire 1 I" outRegA_view[6]~output_o $end
$var wire 1 J" outRegA_view[7]~output_o $end
$var wire 1 K" outRegA_view[8]~output_o $end
$var wire 1 L" outRegA_view[9]~output_o $end
$var wire 1 M" outRegA_view[10]~output_o $end
$var wire 1 N" outRegA_view[11]~output_o $end
$var wire 1 O" outRegA_view[12]~output_o $end
$var wire 1 P" outRegA_view[13]~output_o $end
$var wire 1 Q" outRegA_view[14]~output_o $end
$var wire 1 R" outRegA_view[15]~output_o $end
$var wire 1 S" outRegB_view[0]~output_o $end
$var wire 1 T" outRegB_view[1]~output_o $end
$var wire 1 U" outRegB_view[2]~output_o $end
$var wire 1 V" outRegB_view[3]~output_o $end
$var wire 1 W" outRegB_view[4]~output_o $end
$var wire 1 X" outRegB_view[5]~output_o $end
$var wire 1 Y" outRegB_view[6]~output_o $end
$var wire 1 Z" outRegB_view[7]~output_o $end
$var wire 1 [" outRegB_view[8]~output_o $end
$var wire 1 \" outRegB_view[9]~output_o $end
$var wire 1 ]" outRegB_view[10]~output_o $end
$var wire 1 ^" outRegB_view[11]~output_o $end
$var wire 1 _" outRegB_view[12]~output_o $end
$var wire 1 `" outRegB_view[13]~output_o $end
$var wire 1 a" outRegB_view[14]~output_o $end
$var wire 1 b" outRegB_view[15]~output_o $end
$var wire 1 c" outInv_view[0]~output_o $end
$var wire 1 d" outInv_view[1]~output_o $end
$var wire 1 e" outInv_view[2]~output_o $end
$var wire 1 f" outInv_view[3]~output_o $end
$var wire 1 g" outInv_view[4]~output_o $end
$var wire 1 h" outInv_view[5]~output_o $end
$var wire 1 i" outInv_view[6]~output_o $end
$var wire 1 j" outInv_view[7]~output_o $end
$var wire 1 k" outInv_view[8]~output_o $end
$var wire 1 l" outInv_view[9]~output_o $end
$var wire 1 m" outInv_view[10]~output_o $end
$var wire 1 n" outInv_view[11]~output_o $end
$var wire 1 o" outInv_view[12]~output_o $end
$var wire 1 p" outInv_view[13]~output_o $end
$var wire 1 q" outInv_view[14]~output_o $end
$var wire 1 r" outInv_view[15]~output_o $end
$var wire 1 s" clk~input_o $end
$var wire 1 t" clk~inputclkctrl_outclk $end
$var wire 1 u" b_PO[0]~input_o $end
$var wire 1 v" En_inputs~input_o $end
$var wire 1 w" Mux2|result[0]~0_combout $end
$var wire 1 x" Add|result[0]~0_combout $end
$var wire 1 y" En_regAdder~input_o $end
$var wire 1 z" a_PO[1]~input_o $end
$var wire 1 {" Mux1|result[1]~1_combout $end
$var wire 1 |" Add|result[0]~1 $end
$var wire 1 }" Add|result[1]~2_combout $end
$var wire 1 ~" a_PO[2]~input_o $end
$var wire 1 !# Mux1|result[2]~2_combout $end
$var wire 1 "# Add|result[1]~3 $end
$var wire 1 ## Add|result[2]~4_combout $end
$var wire 1 $# b_PO[3]~input_o $end
$var wire 1 %# Mux2|result[3]~3_combout $end
$var wire 1 &# Add|result[2]~5 $end
$var wire 1 '# Add|result[3]~6_combout $end
$var wire 1 (# b_PO[4]~input_o $end
$var wire 1 )# Mux2|result[4]~4_combout $end
$var wire 1 *# Add|result[3]~7 $end
$var wire 1 +# Add|result[4]~8_combout $end
$var wire 1 ,# b_PO[5]~input_o $end
$var wire 1 -# Mux2|result[5]~5_combout $end
$var wire 1 .# Add|result[4]~9 $end
$var wire 1 /# Add|result[5]~10_combout $end
$var wire 1 0# a_PO[6]~input_o $end
$var wire 1 1# Mux1|result[6]~6_combout $end
$var wire 1 2# Add|result[5]~11 $end
$var wire 1 3# Add|result[6]~12_combout $end
$var wire 1 4# b_PO[7]~input_o $end
$var wire 1 5# Mux2|result[7]~7_combout $end
$var wire 1 6# Add|result[6]~13 $end
$var wire 1 7# Add|result[7]~14_combout $end
$var wire 1 8# a_PO[8]~input_o $end
$var wire 1 9# Mux1|result[8]~8_combout $end
$var wire 1 :# Add|result[7]~15 $end
$var wire 1 ;# Add|result[8]~16_combout $end
$var wire 1 <# a_PO[9]~input_o $end
$var wire 1 =# Mux1|result[9]~9_combout $end
$var wire 1 ># Add|result[8]~17 $end
$var wire 1 ?# Add|result[9]~18_combout $end
$var wire 1 @# Ctrl_mux2~input_o $end
$var wire 1 A# Mux2|result[10]~10_combout $end
$var wire 1 B# Add|result[9]~19 $end
$var wire 1 C# Add|result[10]~20_combout $end
$var wire 1 D# b_PO[11]~input_o $end
$var wire 1 E# Mux2|result[11]~11_combout $end
$var wire 1 F# Add|result[10]~21 $end
$var wire 1 G# Add|result[11]~22_combout $end
$var wire 1 H# Ctrl_mux1~input_o $end
$var wire 1 I# Mux1|result[12]~12_combout $end
$var wire 1 J# Add|result[11]~23 $end
$var wire 1 K# Add|result[12]~24_combout $end
$var wire 1 L# a_PO[13]~input_o $end
$var wire 1 M# Mux1|result[13]~13_combout $end
$var wire 1 N# Add|result[12]~25 $end
$var wire 1 O# Add|result[13]~26_combout $end
$var wire 1 P# b_PO[14]~input_o $end
$var wire 1 Q# Mux2|result[14]~14_combout $end
$var wire 1 R# Add|result[13]~27 $end
$var wire 1 S# Add|result[14]~28_combout $end
$var wire 1 T# b_PO[15]~input_o $end
$var wire 1 U# Mux2|result[15]~15_combout $end
$var wire 1 V# Mux1|result[15]~15_combout $end
$var wire 1 W# Add|result[14]~29 $end
$var wire 1 X# Add|result[15]~30_combout $end
$var wire 1 Y# a_PO[0]~input_o $end
$var wire 1 Z# Mux1|result[0]~0_combout $end
$var wire 1 [# a_PO[3]~input_o $end
$var wire 1 \# Mux1|result[3]~3_combout $end
$var wire 1 ]# a_PO[4]~input_o $end
$var wire 1 ^# Mux1|result[4]~4_combout $end
$var wire 1 _# a_PO[5]~input_o $end
$var wire 1 `# Mux1|result[5]~5_combout $end
$var wire 1 a# a_PO[7]~input_o $end
$var wire 1 b# Mux1|result[7]~7_combout $end
$var wire 1 c# a_PO[10]~input_o $end
$var wire 1 d# Mux1|result[10]~10_combout $end
$var wire 1 e# a_PO[11]~input_o $end
$var wire 1 f# Mux1|result[11]~11_combout $end
$var wire 1 g# a_PO[14]~input_o $end
$var wire 1 h# Mux1|result[14]~14_combout $end
$var wire 1 i# b_PO[1]~input_o $end
$var wire 1 j# RegB|q[1]~feeder_combout $end
$var wire 1 k# Mux2|result[1]~1_combout $end
$var wire 1 l# b_PO[2]~input_o $end
$var wire 1 m# Mux2|result[2]~2_combout $end
$var wire 1 n# b_PO[6]~input_o $end
$var wire 1 o# Mux2|result[6]~6_combout $end
$var wire 1 p# b_PO[8]~input_o $end
$var wire 1 q# Mux2|result[8]~8_combout $end
$var wire 1 r# b_PO[9]~input_o $end
$var wire 1 s# Mux2|result[9]~9_combout $end
$var wire 1 t# b_PO[12]~input_o $end
$var wire 1 u# Mux2|result[12]~12_combout $end
$var wire 1 v# b_PO[13]~input_o $end
$var wire 1 w# Mux2|result[13]~13_combout $end
$var wire 1 x# a_PO[12]~input_o $end
$var wire 1 y# a_PO[15]~input_o $end
$var wire 1 z# b_PO[10]~input_o $end
$var wire 1 {# RegB|q [15] $end
$var wire 1 |# RegB|q [14] $end
$var wire 1 }# RegB|q [13] $end
$var wire 1 ~# RegB|q [12] $end
$var wire 1 !$ RegB|q [11] $end
$var wire 1 "$ RegB|q [10] $end
$var wire 1 #$ RegB|q [9] $end
$var wire 1 $$ RegB|q [8] $end
$var wire 1 %$ RegB|q [7] $end
$var wire 1 &$ RegB|q [6] $end
$var wire 1 '$ RegB|q [5] $end
$var wire 1 ($ RegB|q [4] $end
$var wire 1 )$ RegB|q [3] $end
$var wire 1 *$ RegB|q [2] $end
$var wire 1 +$ RegB|q [1] $end
$var wire 1 ,$ RegB|q [0] $end
$var wire 1 -$ RegAdder|q [15] $end
$var wire 1 .$ RegAdder|q [14] $end
$var wire 1 /$ RegAdder|q [13] $end
$var wire 1 0$ RegAdder|q [12] $end
$var wire 1 1$ RegAdder|q [11] $end
$var wire 1 2$ RegAdder|q [10] $end
$var wire 1 3$ RegAdder|q [9] $end
$var wire 1 4$ RegAdder|q [8] $end
$var wire 1 5$ RegAdder|q [7] $end
$var wire 1 6$ RegAdder|q [6] $end
$var wire 1 7$ RegAdder|q [5] $end
$var wire 1 8$ RegAdder|q [4] $end
$var wire 1 9$ RegAdder|q [3] $end
$var wire 1 :$ RegAdder|q [2] $end
$var wire 1 ;$ RegAdder|q [1] $end
$var wire 1 <$ RegAdder|q [0] $end
$var wire 1 =$ RegA|q [15] $end
$var wire 1 >$ RegA|q [14] $end
$var wire 1 ?$ RegA|q [13] $end
$var wire 1 @$ RegA|q [12] $end
$var wire 1 A$ RegA|q [11] $end
$var wire 1 B$ RegA|q [10] $end
$var wire 1 C$ RegA|q [9] $end
$var wire 1 D$ RegA|q [8] $end
$var wire 1 E$ RegA|q [7] $end
$var wire 1 F$ RegA|q [6] $end
$var wire 1 G$ RegA|q [5] $end
$var wire 1 H$ RegA|q [4] $end
$var wire 1 I$ RegA|q [3] $end
$var wire 1 J$ RegA|q [2] $end
$var wire 1 K$ RegA|q [1] $end
$var wire 1 L$ RegA|q [0] $end
$upscope $end
$upscope $end
$enddefinitions $end
#0
$dumpvars
b1000 !
b10 "
0#
x$
x%
0&
x'
07
06
05
04
03
02
01
00
0/
0.
0-
0,
0+
0*
0)
0(
xG
xF
xE
xD
xC
xB
xA
x@
x?
x>
x=
x<
x;
x:
x9
x8
1W
1V
1U
1T
1S
1R
1Q
1P
1O
1N
1M
1L
1K
1J
1I
1H
xg
0f
0e
0d
0c
0b
0a
0`
0_
0^
0]
0\
0[
0Z
0Y
0X
xw
xv
xu
xt
xs
xr
xq
xp
xo
xn
xm
xl
xk
xj
xi
xh
0)!
0(!
0'!
0&!
0%!
0$!
0#!
0"!
0!!
0~
0}
0|
0{
0z
0y
0x
09!
08!
07!
06!
05!
04!
03!
02!
01!
00!
0/!
0.!
0-!
0,!
0+!
0*!
0I!
0H!
0G!
0F!
0E!
0D!
0C!
0B!
0A!
0@!
0?!
0>!
0=!
0<!
0;!
0:!
xJ!
0K!
1L!
xM!
1N!
1O!
1P!
0Q!
0R!
0S!
0T!
0U!
0V!
0W!
0X!
0Y!
0Z!
0[!
0\!
0]!
0^!
0_!
0`!
xa!
0b!
0c!
0d!
0e!
0f!
0g!
0h!
0i!
0j!
0k!
0l!
0m!
0n!
0o!
0p!
xq!
xr!
xs!
xt!
xu!
xv!
xw!
xx!
xy!
xz!
x{!
x|!
x}!
x~!
x!"
x""
x#"
x$"
x%"
x&"
x'"
x("
x)"
x*"
x+"
x,"
x-"
x."
x/"
x0"
x1"
x2"
03"
04"
05"
06"
07"
08"
09"
0:"
0;"
0<"
0="
0>"
0?"
0@"
0A"
0B"
0C"
0D"
0E"
0F"
0G"
0H"
0I"
0J"
0K"
0L"
0M"
0N"
0O"
0P"
0Q"
0R"
0S"
0T"
0U"
0V"
0W"
0X"
0Y"
0Z"
0["
0\"
0]"
0^"
0_"
0`"
0a"
0b"
1c"
1d"
1e"
1f"
1g"
1h"
1i"
1j"
1k"
1l"
1m"
1n"
1o"
1p"
1q"
1r"
0s"
0t"
0u"
0v"
xw"
xx"
xy"
0z"
0{"
x|"
x}"
0~"
0!#
x"#
x##
0$#
x%#
x&#
x'#
0(#
x)#
x*#
x+#
0,#
x-#
x.#
x/#
00#
01#
x2#
x3#
04#
x5#
x6#
x7#
08#
09#
x:#
x;#
0<#
0=#
x>#
x?#
x@#
xA#
xB#
xC#
0D#
xE#
xF#
xG#
xH#
0I#
xJ#
xK#
0L#
0M#
xN#
xO#
0P#
xQ#
xR#
xS#
0T#
xU#
0V#
xW#
xX#
0Y#
xZ#
1[#
0\#
0]#
0^#
0_#
0`#
0a#
0b#
0c#
0d#
0e#
0f#
0g#
0h#
1i#
1j#
xk#
0l#
xm#
0n#
xo#
0p#
xq#
0r#
xs#
0t#
xu#
0v#
xw#
0x#
0y#
0z#
0,$
0+$
0*$
0)$
0($
0'$
0&$
0%$
0$$
0#$
0"$
0!$
0~#
0}#
0|#
0{#
0<$
0;$
0:$
09$
08$
07$
06$
05$
04$
03$
02$
01$
00$
0/$
0.$
0-$
0L$
0K$
0J$
0I$
0H$
0G$
0F$
0E$
0D$
0C$
0B$
0A$
0@$
0?$
0>$
0=$
$end
#50000
1#
1s"
1t"
0J!
#70000
1&
1v"
1J!
#100000
0#
0s"
0t"
0J!
#150000
1#
1s"
1t"
1J!
1+$
1I$
1T"
1F"
0d"
1H!
1&!
0V
0k#
x\#
1"#
0r!
xd!
0v
xd
0&#
#170000
1$
0%
1'
0&
1H#
0@#
1y"
0v"
0J!
0\#
1Z#
1w#
1u#
1s#
1q#
1o#
1m#
1U#
1Q#
1E#
1A#
15#
1-#
1)#
1%#
1w"
1*#
1|"
0d!
1a!
1~!
1}!
1z!
1y!
1w!
1s!
1""
1!"
1|!
1{!
1x!
1v!
1u!
1t!
1q!
0d
1g
1j
1k
1n
1o
1q
1u
1h
1i
1l
1m
1p
1r
1s
1t
1w
1'#
0x"
1##
0.#
1&"
0#"
1%"
1D
0G
1E
1+#
1}"
12#
1'"
1$"
1C
1F
1/#
06#
1("
1B
13#
1:#
1)"
1A
17#
0>#
1*"
1@
1;#
1B#
1+"
1?
1?#
0F#
1,"
1>
1C#
1J#
1-"
1=
1G#
0N#
1."
1<
1K#
1R#
1/"
1;
1O#
0W#
10"
1:
1S#
11"
19
1X#
12"
18
#200000
0#
0s"
0t"
1J!
#250000
1#
1s"
1t"
0J!
1-$
1.$
1/$
10$
11$
12$
13$
14$
15$
16$
17$
18$
19$
1:$
1;$
1B"
1`!
1A"
1_!
1@"
1^!
1?"
1]!
1>"
1\!
1="
1[!
1<"
1Z!
1;"
1Y!
1:"
1X!
19"
1W!
18"
1V!
17"
1U!
16"
1T!
15"
1S!
14"
1R!
1*!
1(
1+!
1)
1,!
1*
1-!
1+
1.!
1,
1/!
1-
10!
1.
11!
1/
12!
10
13!
11
14!
12
15!
13
16!
14
17!
15
18!
16
#270000
0$
1%
0H#
1@#
1J!
1\#
0Z#
1k#
0w"
0*#
0|"
0"#
1d!
0a!
1r!
0q!
1d
0g
1v
0w
0'#
0}"
1.#
1"#
1&#
0&"
0$"
0D
0F
0+#
1}"
0##
02#
0&#
0'"
1$"
0%"
0C
1F
0E
0/#
1##
1'#
16#
0("
1%"
1&"
0B
1E
1D
03#
0'#
0:#
0)"
0&"
0A
0D
07#
1>#
0*"
0@
0;#
0B#
0+"
0?
0?#
1F#
0,"
0>
0C#
0J#
0-"
0=
0G#
1N#
0."
0<
0K#
0R#
0/"
0;
0O#
1W#
00"
0:
0S#
01"
09
0X#
02"
08
#300000
0#
0s"
0t"
0J!
#350000
1#
1s"
1t"
1J!
0-$
0.$
0/$
00$
01$
02$
03$
04$
05$
06$
07$
08$
09$
0B"
0`!
0A"
0_!
0@"
0^!
0?"
0]!
0>"
0\!
0="
0[!
0<"
0Z!
0;"
0Y!
0:"
0X!
09"
0W!
08"
0V!
07"
0U!
06"
0T!
0*!
0(
0+!
0)
0,!
0*
0-!
0+
0.!
0,
0/!
0-
00!
0.
01!
0/
02!
00
03!
01
04!
02
05!
03
06!
04
0U#
0Q#
0w#
0u#
0E#
0A#
0s#
0q#
05#
0o#
0-#
0)#
0%#
0W#
1R#
0N#
1J#
0F#
1B#
0>#
1:#
06#
12#
0.#
1*#
0""
0!"
0~!
0}!
0|!
0{!
0z!
0y!
0x!
0w!
0v!
0u!
0t!
0h
0i
0j
0k
0l
0m
0n
0o
0p
0q
0r
0s
0t
1X#
1S#
1O#
1K#
1G#
1C#
1?#
1;#
17#
13#
1/#
1+#
1'#
12"
11"
10"
1/"
1."
1-"
1,"
1+"
1*"
1)"
1("
1'"
1&"
18
19
1:
1;
1<
1=
1>
1?
1@
1A
1B
1C
1D
0X#
0S#
0O#
0K#
0G#
0C#
0?#
0;#
07#
03#
0/#
0+#
02"
01"
00"
0/"
0."
0-"
0,"
0+"
0*"
0)"
0("
0'"
08
09
0:
0;
0<
0=
0>
0?
0@
0A
0B
0C
#370000
0'
0%
0y"
0@#
0J!
1w#
1u#
1s#
1q#
1o#
0k#
1U#
1Q#
1E#
1A#
15#
1-#
1)#
1%#
1w"
0*#
1~!
1}!
1z!
1y!
1w!
0r!
1""
1!"
1|!
1{!
1x!
1v!
1u!
1t!
1q!
1j
1k
1n
1o
1q
0v
1h
1i
1l
1m
1p
1r
1s
1t
1w
1O#
1K#
1?#
1;#
13#
0}"
1X#
1S#
1G#
1C#
17#
1/#
1+#
0'#
1x"
1.#
10"
1/"
1,"
1+"
1)"
0$"
12"
11"
1."
1-"
1*"
1("
1'"
0&"
1#"
1:
1;
1>
1?
1A
0F
18
19
1<
1=
1@
1B
1C
0D
1G
0+#
02#
0'"
0C
0/#
16#
0("
0B
03#
0:#
0)"
0A
07#
1>#
0*"
0@
0;#
0B#
0+"
0?
0?#
1F#
0,"
0>
0C#
0J#
0-"
0=
0G#
1N#
0."
0<
0K#
0R#
0/"
0;
0O#
1W#
00"
0:
0S#
01"
09
0X#
02"
08
#400000
0#
0s"
0t"
1J!
#450000
1#
1s"
1t"
0J!
#500000
0#
0s"
0t"
1J!
#550000
1#
1s"
1t"
0J!
#600000
0#
0s"
0t"
1J!
#650000
1#
1s"
1t"
0J!
#700000
0#
0s"
0t"
1J!
#750000
1#
1s"
1t"
0J!
#800000
0#
0s"
0t"
1J!
#850000
1#
1s"
1t"
0J!
#900000
0#
0s"
0t"
1J!
#950000
1#
1s"
1t"
0J!
